Firm.Type,Market,Cumulative.Probability
start-up,Medium Devices,0.3854166666666667
start-up,Stationary,0.3854166666666667
start-up,Electromobility,0.75
start-up,Small Devices,1
firm-small,Medium Devices,0.31095090216139326
firm-small,Stationary,0.31095090216139326
firm-small,Electromobility,0.7485950902887895
firm-small,Small Devices,1
firm-big,Medium Devices,0.30408106705313803
firm-big,Stationary,0.3041371774847268
firm-big,Electromobility,0.7229351800557346
firm-big,Small Devices,1
