Firm.Type,Value.Chain.Position,Cumulative.Probability
firm-big,component,0.41524075609271055
firm-big,cell-micro,0.41524075609271055
firm-big,cell-big,0.7759539458686346
firm-big,battery,1
firm-small,component,0.37865658444560607
firm-small,cell-micro,0.37865658444560607
firm-small,cell-big,0.694175877069277
firm-small,battery,1
institute,component,0.3993181235047402
institute,cell-micro,0.3993181235047402
institute,cell-big,0.8794784559009359
institute,battery,1
start-up,component,0.18754985754305223
start-up,cell-micro,0.18754985754305223
start-up,cell-big,0.47703703707930867
start-up,battery,1
