value,probability
0,0.014331382725190819
0.26418786692759294,0.028675107155096597
0.5283757338551859,0.043023474047518044
0.7925636007827788,0.0573726302961524
1.0567514677103718,0.07171679624154548
1.3209393346379648,0.08605020816077323
1.5851272015655575,0.10036902357188625
1.8493150684931505,0.11466560682377282
2.1135029354207435,0.128938049003655
2.3776908023483365,0.14317690186034504
2.6418786692759295,0.15738030181662815
2.9060665362035225,0.171540794563645
3.170254403131115,0.18565471838407005
3.434442270058708,0.19971658070191528
3.698630136986301,0.21372100641962724
3.962818003913894,0.22766441213883704
4.227005870841487,0.24153981249450082
4.49119373776908,0.25534546114535767
4.755381604696673,0.2690728827755793
5.019569471624266,0.2827204392085753
5.283757338551859,0.29628157773798414
5.547945205479452,0.3097531463157896
5.812133072407045,0.3231304168699675
6.076320939334638,0.3364088624731165
6.34050880626223,0.3495854651736359
6.604696673189824,0.36265447526279737
6.868884540117416,0.37561445531341886
7.1330724070450096,0.38845859635073254
7.397260273972602,0.4011856158606213
7.6614481409001955,0.4137903837866165
7.925636007827788,0.4262705000599356
8.189823874755382,0.4386223645774048
8.454011741682974,0.45084263288904863
8.718199608610567,0.46292907536155037
8.98238747553816,0.4748775826773759
9.246575342465754,0.4866871275071417
9.510763209393346,0.49835301962566364
9.774951076320939,0.5098744115963834
10.039138943248531,0.5212479136730684
10.303326810176126,0.5324720139079315
10.567514677103718,0.5435444443792918
10.83170254403131,0.554463212725232
11.095890410958903,0.5652269907044736
11.360078277886496,0.5758334889937361
11.62426614481409,0.5862821352621995
11.888454011741683,0.5965705242806935
12.152641878669275,0.6066982653576338
12.416829745596868,0.616663795726684
12.68101761252446,0.6264665120361955
12.945205479452055,0.6361055092586964
13.209393346379647,0.6455801442369815
13.47358121330724,0.6548899881995809
13.737769080234832,0.664034524403489
14.001956947162427,0.6730136236629546
14.266144814090019,0.6818270538997351
14.530332681017612,0.6904748487249283
14.794520547945204,0.6989571425829244
15.058708414872797,0.7072741566910663
15.322896281800391,0.7154262228753674
15.587084148727984,0.7234138940958152
15.851272015655576,0.7312375389924016
16.11545988258317,0.7388981756352445
16.379647749510763,0.7463960585418735
16.643835616438356,0.7537327927311921
16.908023483365948,0.7609087618147495
17.17221135029354,0.767925500238742
17.436399217221133,0.7747838924109709
17.700587084148726,0.7814852649431385
17.96477495107632,0.7880311078569089
18.228962818003914,0.7944224145000581
18.493150684931507,0.8006613726486992
18.7573385518591,0.8067485292468605
19.021526418786692,0.8126868491223193
19.285714285714285,0.8184769669925397
19.549902152641877,0.8241214217273773
19.81409001956947,0.8296215577375532
20.078277886497062,0.8349793916391484
20.342465753424655,0.8401970398126039
20.60665362035225,0.8452759131782137
20.870841487279844,0.8502189498821919
21.135029354207436,0.855026884461092
21.39921722113503,0.8597035144726247
21.66340508806262,0.8642496203993962
21.927592954990214,0.8686683241718306
22.191780821917806,0.8729612209218925
22.4559686888454,0.8771307033475292
22.72015655577299,0.8811792041331525
22.984344422700588,0.88510834506837055
23.24853228962818,0.8889214086220145
23.512720156555773,0.8926192154112924
23.776908023483365,0.8962058999083226
24.041095890410958,0.8996822920119645
24.30528375733855,0.9030517113176565
24.569471624266143,0.9063158174498097
24.833659491193735,0.9094770998450412
25.097847358121328,0.9125380389740644
25.36203522504892,0.9155002884840217
25.626223091976517,0.9183671328856001
25.89041095890411,0.9211393933064715
26.1545988258317,0.9238211343620417
26.418786692759294,0.9264131584628705
26.682974559686887,0.9289186752511972
26.94716242661448,0.9313392643099667
27.211350293542072,0.9336772950135969
27.475538160469664,0.9359350931609964
27.739726027397257,0.9381142092847714
28.003913894324853,0.9402176795180222
28.268101761252446,0.9422462628940241
28.532289628180038,0.9442036658482057
28.79647749510763,0.9460906105983204
29.060665362035223,0.9479099860153829
29.324853228962816,0.9496631961185711
29.58904109589041,0.9513523469366518
29.853228962818,0.9529794809904728
30.117416829745594,0.9545459599605997
30.38160469667319,0.9560544193675038
30.645792563600782,0.9575055180913034
30.909980430528375,0.9589024375885039
31.174168297455967,0.9602457910865158
31.43835616438356,0.9615380314949803
31.702544031311152,0.9627803384798136
31.966731898238745,0.9639744815398897
32.23091976516634,0.9651221594043989
32.495107632093934,0.966224504559468
32.759295499021526,0.9672836873380111
33.02348336594912,0.9683002503232568
33.28767123287671,0.969276788361273
33.551859099804304,0.9702137969590621
33.816046966731896,0.9711132581446347
34.08023483365949,0.971976116503701
34.34442270058708,0.9728037889148262
34.608610567514674,0.9735976236183114
34.87279843444227,0.9743585194410243
35.13698630136986,0.975088184166973
35.40117416829745,0.9757870447421598
35.665362035225044,0.9764571259600073
35.92954990215264,0.9770988113312947
36.19373776908023,0.9777136348991387
36.45792563600783,0.9783023219697756
36.72211350293542,0.9788659605025603
36.986301369863014,0.9794055777828934
37.25048923679061,0.9799218586677084
37.5146771037182,0.9804160946448173
37.77886497064579,0.9808886085861729
38.043052837573384,0.9813409205493898
38.30724070450098,0.9817733164028821
38.57142857142857,0.9821869396203062
38.83561643835616,0.9825823271169419
39.099804305283755,0.9829602842657088
39.36399217221135,0.9833215664320482
39.62818003913894,0.9836666771929206
39.89236790606653,0.9839965600082244
40.156555772994125,0.9843114507429342
40.42074363992172,0.9846124528290863
40.68493150684931,0.9848997725144697
40.9491193737769,0.9851742347902411
41.2133072407045,0.985436224737048
41.477495107632095,0.9856863199758614
41.74168297455969,0.9859250591622601
42.00587084148728,0.9861528013999631
42.27005870841487,0.9863702157582642
42.534246575342465,0.9865774695044871
42.79843444227006,0.9867753409843063
43.06262230919765,0.9869639749353178
43.32681017612524,0.9871439503079056
43.590998043052835,0.9873155360045882
43.85518590998043,0.9874791353791436
44.11937377690802,0.9876351227933823
44.38356164383561,0.9877837478218447
44.647749510763205,0.9879254733512678
44.9119373776908,0.9880604151033358
45.17612524461839,0.9881891092268387
45.44031311154598,0.9883116550079917
45.704500978473575,0.9884284495916561
45.968688845401175,0.9885396767088062
46.23287671232877,0.9886456119559031
46.49706457925636,0.9887465101587273
46.76125244618395,0.9888425412011326
47.025440313111545,0.9889340190431268
47.28962818003914,0.9890210221747121
47.55381604696673,0.9891039130181949
47.81800391389432,0.989182758474057
48.082191780821915,0.9892578261442242
48.34637964774951,0.9893292394562788
48.6105675146771,0.9893971835515943
48.87475538160469,0.9894618291324998
49.138943248532286,0.9895232900005481
49.40313111545988,0.9895817759100076
49.66731898238747,0.9896373392994461
49.93150684931506,0.9896902216944012
50.195694716242656,0.9897404675740822
50.45988258317025,0.9897882548553264
50.72407045009784,0.9898336654193178
50.98825831702544,0.9898768220878323
51.25244618395303,0.9899178378706007
51.516634050880626,0.9899567881074437
51.78082191780822,0.9899938113934399
52.04500978473581,0.9900289423773591
52.3091976516634,0.990062340357861
52.573385518590996,0.9900940346212577
52.83757338551859,0.9901241423127969
53.10176125244618,0.9901527172584119
53.365949119373774,0.9901798401970029
53.630136986301366,0.9902055853038031
53.89432485322896,0.9902300020289676
54.15851272015655,0.9902531812082103
54.422700587084144,0.990275145550459
54.686888454011736,0.9902959993140932
54.95107632093933,0.9903157616404334
55.21526418786692,0.9903345090947611
55.479452054794514,0.9903522768104189
55.743639921722114,0.9903691174874206
56.007827788649706,0.9903850794776974
56.2720156555773,0.9904001950158695
56.53620352250489,0.9904145232361573
56.800391389432484,0.9904280789221156
57.064579256360076,0.9904409298558423
57.32876712328767,0.9904530884649139
57.59295499021526,0.990464604459637
57.857142857142854,0.9904755006186491
58.12133072407045,0.9904858111099056
58.38551859099804,0.9904955672369647
58.64970645792563,0.9905047898688651
58.913894324853224,0.9905135172319951
59.17808219178082,0.9905217588829517
59.44227005870841,0.9905295585691246
59.706457925636,0.9905369242980753
59.970645792563595,0.9905438881000487
60.23483365949119,0.9905504646264164
60.49902152641879,0.9905566758542356
60.76320939334638,0.9905625418807983
61.02739726027397,0.9905680761042989
61.291585127201564,0.9905733030184146
61.55577299412916,0.9905782287465645
61.81996086105675,0.9905828812618634
62.08414872798434,0.9905872656733125
62.348336594911935,0.9905914024169167
62.61252446183953,0.9905953008189622
62.87671232876712,0.9905989748688785
63.14090019569471,0.9906024373283951
63.405088062622305,0.9906056967053322
63.6692759295499,0.9906087685133445
63.93346379647749,0.9906116566308457
64.19765166340508,0.9906143787278207
64.46183953033268,0.9906169380224822
64.72602739726027,0.9906193473876834
64.99021526418787,0.9906216126810456
65.25440313111545,0.9906237426890011
65.51859099804305,0.990625745402698
65.78277886497064,0.9906276261495682
66.04696673189824,0.9906293946136883
66.31115459882582,0.9906310532160771
66.57534246575342,0.9906326129515386
66.83953033268101,0.9906340758159924
67.10371819960861,0.9906354497931181
67.3679060665362,0.9906367385037206
67.63209393346379,0.9906379473790077
67.89628180039139,0.9906390813420753
68.16046966731898,0.9906401436749874
68.42465753424658,0.990641140323901
68.68884540117416,0.9906420727753558
68.95303326810176,0.9906429477581264
69.21722113502935,0.9906437664898151
69.48140900195695,0.9906445338408288
69.74559686888453,0.9906452520133421
70.00978473581213,0.9906459243106164
70.27397260273972,0.9906465537185449
70.53816046966732,0.9906471422277234
70.8023483365949,0.9906476934357242
71.0665362035225,0.9906482082419404
71.33072407045009,0.9906486907093771
71.59491193737769,0.9906491415722468
71.85909980430527,0.9906495637673997
72.12328767123287,0.9906499586219917
72.38747553816046,0.9906503281267571
72.65166340508806,0.9906506740820051
72.91585127201566,0.9906509976879421
73.18003913894324,0.9906513011175487
73.44422700587084,0.9906515849140705
73.70841487279843,0.9906518515400604
73.97260273972603,0.9906521014429698
74.23679060665361,0.9906523364126038
74.50097847358121,0.9906525572642868
74.7651663405088,0.9906527652210059
75.0293542074364,0.9906529614011
75.29354207436398,0.9906531465501286
75.55772994129158,0.9906533220380035
75.82191780821917,0.9906534882072024
76.08610567514677,0.9906536466400669
76.35029354207435,0.9906537976310937
76.61448140900195,0.9906539423582689
76.87866927592954,0.9906540813742764
77.14285714285714,0.9906542155081416
77.40704500978474,0.9906543455453087
77.67123287671232,0.9906544720094073
77.93542074363992,0.9906545959034603
78.19960861056751,0.9906547174782234
78.46379647749511,0.9906548379488698
78.7279843444227,0.9906549575539474
78.9921722113503,0.990655077247649
79.25636007827788,0.9906551975044144
79.52054794520548,0.9906553190359036
79.78473581213306,0.9906554425591133
80.04892367906066,0.990655568552041
80.31311154598825,0.9906556979901183
80.57729941291585,0.9906558311172031
80.84148727984343,0.9906559691922627
81.10567514677103,0.990656112478121
81.36986301369862,0.990656262026075
81.63405088062622,0.9906564183901052
81.8982387475538,0.9906565824011822
82.1624266144814,0.9906567549423617
82.426614481409,0.9906569366023481
82.69080234833659,0.99065712864109845
82.95499021526419,0.9906573313736021
83.21917808219177,0.9906575464948615
83.48336594911937,0.9906577743713777
83.74755381604696,0.990658016469155
84.01174168297456,0.9906582735834394
84.27592954990214,0.9906585469071001
84.54011741682974,0.990658837737677
84.80430528375733,0.9906591469401967
85.06849315068493,0.9906594763999897
85.332681017612515,0.9906598265883887
85.59686888454011,0.9906602000766651
85.8610567514677,0.9906605974262818
86.1252446183953,0.9906610208830892
86.38943248532289,0.9906614716733895
86.65362035225048,0.9906619516366367
86.91780821917807,0.9906624627813952
87.18199608610567,0.9906630064467081
87.44618395303327,0.990663585555698
87.71037181996086,0.9906642008391454
87.97455968688845,0.990664856282749
88.23874755381604,0.9906655527553199
88.50293542074364,0.9906662937321028
88.76712328767123,0.9906670811051115
89.03131115459882,0.9906679177123667
89.29549902152641,0.9906688066406747
89.55968688845401,0.9906697499479064
89.8238747553816,0.990670752105258
90.0880626223092,0.9906718142305287
90.35225048923678,0.9906729423876754
90.61643835616438,0.990674137890792
90.88062622309197,0.9906754059962528
91.14481409001957,0.9906767495478018
91.40900195694715,0.9906781728110549
91.67318982387475,0.9906796803948316
91.93737769080235,0.9906812753716786
92.20156555772994,0.9906829643712854
92.46575342465754,0.9906847490510746
92.72994129158512,0.9906866383381351
92.99412915851272,0.9906886341527948
93.2583170254403,0.9906907441763649
93.5225048923679,0.9906929725332181
93.78669275929549,0.9906953254099138
94.05088062622309,0.9906978094394208
94.31506849315068,0.9907004290437182
94.57925636007828,0.9907031936895692
94.84344422700586,0.990706105743664
95.10763209393346,0.9907091778519848
95.37181996086105,0.9907124127128938
95.63600782778865,0.9907158211198411
95.90019569471623,0.9907194088208064
96.16438356164383,0.9907231844377591
96.42857142857142,0.9907271571381597
96.69275929549902,0.9907313330336488
96.95694716242662,0.9907357250983551
97.2211350293542,0.990740336575811
97.4853228962818,0.9907451846497063
97.74951076320939,0.9907502729550206
98.01369863013699,0.9907556160316714
98.27788649706457,0.9907612215551075
98.54207436399217,0.9907671010385027
98.80626223091976,0.9907732666149549
99.07045009784736,0.9907797263731956
99.33463796477494,0.9907864973300923
99.59882583170254,0.9907935837398619
99.86301369863013,0.9908010079350562
100.12720156555773,0.9908087745960726
100.39138943248531,0.9908169024445012
100.65557729941291,0.9908254012702347
100.9197651663405,0.990834285758112
101.1839530332681,0.9908435712355608
101.44814090019568,0.9908532679208658
101.71232876712328,0.9908633971015819
101.97651663405088,0.9908739640995977
102.24070450097847,0.9908849965749496
102.50489236790607,0.9908965002658785
102.76908023483365,0.9909084981253496
103.03326810176125,0.9909210020318797
103.29745596868884,0.9909340298032439
103.56164383561644,0.9909475998404047
103.82583170254402,0.9909617244106708
104.09001956947162,0.9909764287938717
104.35420743639921,0.9909917193099654
104.6183953033268,0.9910076284421308
104.88258317025439,0.9910241628524701
105.14677103718199,0.991041349189393
105.41095890410958,0.9910592010823472
105.67514677103718,0.9910777389755042
105.93933463796476,0.9910969837273511
106.20352250489236,0.9911169492435458
106.46771037181996,0.9911376638229625
106.73189823874755,0.9911591345403197
106.99608610567515,0.9911813972889952
107.26027397260273,0.9912044593319664
107.52446183953033,0.9912283497211422
107.78864970645792,0.9912530831083366
108.05283757338552,0.9912786814712707
108.3170254403131,0.9913051669072482
108.5812133072407,0.9913325541478049
108.84540117416829,0.9913608727165238
109.10958904109589,0.9913901299943013
109.37377690802347,0.9914203628295117
109.63796477495107,0.9914515785527064
109.90215264187866,0.9914838064860904
110.16634050880626,0.9915170611537619
110.43052837573384,0.9915513643418687
110.69471624266144,0.9915867375387688
110.95890410958903,0.9916231950700342
111.22309197651663,0.9916607650616183
111.48727984344423,0.9916994545450094
111.75146771037181,0.9917392978552432
112.01565557729941,0.9917803016606528
112.279843444227,0.9918224926345711
112.5440313111546,0.9918658836462241
112.80821917808218,0.9919104939994501
113.07240704500978,0.9919563421897339
113.33659491193737,0.9920034405473989
113.60078277886497,0.992051812510358
113.86497064579255,0.9921014639380897
114.12915851272015,0.9921524224168881
114.39334637964774,0.9922046930851596
114.65753424657534,0.9922582964965313
114.92172211350292,0.9923132420970943
115.18590998043052,0.9923695440559847
115.45009784735811,0.9924272151877824
115.71428571428571,0.992486264035541
115.97847358121331,0.9925467057370148
116.2426614481409,0.9926085440766423
116.5068493150685,0.9926717953674863
116.77103718199608,0.9927364623166731
117.03522504892368,0.9928025557527093
117.29941291585126,0.9928700799142127
117.56360078277886,0.9929390411591106
117.82778864970645,0.9930094439896172
118.09197651663405,0.9930812914072089
118.35616438356163,0.9931545868248498
118.62035225048923,0.9932293310957808
118.88454011741682,0.9933055251144504
119.14872798434442,0.9933831683608533
119.412915851272,0.9934622587549699
119.6771037181996,0.9935427938149969
119.94129158512719,0.99362476981823
120.20547945205479,0.9937081808215558
120.46966731898237,0.9937930228628982
120.73385518590997,0.9938792849924769
120.99804305283757,0.9939669644728472
121.26223091976516,0.9940560437692025
121.52641878669276,0.9941465185952946
121.79060665362034,0.9942383718061274
122.05479452054794,0.9943315932580729
122.31898238747553,0.9944261677356884
122.58317025440313,0.9945220776588921
122.84735812133071,0.9946193113076294
123.11154598825831,0.9947178420933179
123.3757338551859,0.9948176633688119
123.6399217221135,0.9949187379874256
123.90410958904108,0.9950210577464514
124.16829745596868,0.9951245898350614
124.43248532289627,0.9952293163266085
124.69667318982387,0.995335210331123
124.96086105675145,0.9954422427268702
125.22504892367905,0.9955503940993601
125.48923679060664,0.9956596227263925
125.75342465753424,0.9957699181774174
126.01761252446184,0.995881224805611
126.28180039138942,0.9959935308110814
126.54598825831702,0.9961067889942611
126.81017612524461,0.9962209744782706
127.07436399217221,0.9963360499477913
127.3385518590998,0.9964519762784723
127.6027397260274,0.9965687273874131
127.86692759295498,0.9966862488525053
128.13111545988258,0.9968045270682219
128.39530332681016,0.9969234913972516
128.65949119373775,0.9970431272353334
128.92367906066536,0.9971633761654235
129.18786692759295,0.9972842081211883
129.45205479452054,0.9974055780031282
129.71624266144812,0.9975274395761959
129.98043052837573,0.9976497620170267
130.24461839530332,0.997772482375254
130.5088062622309,0.9978955849132861
130.77299412915852,0.9980189895862409
131.0371819960861,0.9981426801698857
131.3013698630137,0.9982665917672888
131.56555772994128,0.9983906916142812
131.8297455968689,0.998514930564609
132.09393346379647,0.9986392591734924
132.35812133072406,0.9987636444777446
132.62230919765165,0.9988880203886988
132.88649706457926,0.9990123703841884
133.15068493150685,0.9991366119463989
133.41487279843443,0.9992607286494368
133.67906066536202,0.9993846547897293
133.94324853228963,0.9995083577880347
134.20743639921722,0.9996317887754909
134.4716242661448,0.9997548994654285
134.7358121330724,0.999877657666735
135,1
